barrel_shift_right.vcd
$date
  Wed Jan 07 15:05:12 2026
$end
$version
  GHDL v0
$end
$timescale
  1 fs
$end
$scope module standard $end
$upscope $end
$scope module textio $end
$upscope $end
$scope module std_logic_1164 $end
$upscope $end
$scope module numeric_std $end
$upscope $end
$scope module barrel_shift_right_tb $end
$var reg 16 ! s_data_in[15:0] $end
$var reg 16 " s_data_out[15:0] $end
$var reg 4 # s_shift[3:0] $end
$var reg 1 $ s_missing $end
$scope module uut $end
$var reg 16 % data_in[15:0] $end
$var reg 16 & data_out[15:0] $end
$var reg 4 ' shift[3:0] $end
$var reg 1 ( missing $end
$comment s_internal_data is not handled $end
$scope module for_i(0) $end
$scope module slice $end
$var reg 16 ) data_in[15:0] $end
$var reg 16 * data_out[15:0] $end
$var reg 1 + sel $end
$var reg 1 , missing $end
$var reg 16 - s_out[15:0] $end
$upscope $end
$upscope $end
$scope module for_i(1) $end
$scope module slice $end
$var reg 16 . data_in[15:0] $end
$var reg 16 / data_out[15:0] $end
$var reg 1 0 sel $end
$var reg 1 1 missing $end
$var reg 16 2 s_out[15:0] $end
$upscope $end
$upscope $end
$scope module for_i(2) $end
$scope module slice $end
$var reg 16 3 data_in[15:0] $end
$var reg 16 4 data_out[15:0] $end
$var reg 1 5 sel $end
$var reg 1 6 missing $end
$var reg 16 7 s_out[15:0] $end
$upscope $end
$upscope $end
$scope module for_i(3) $end
$scope module slice $end
$var reg 16 8 data_in[15:0] $end
$var reg 16 9 data_out[15:0] $end
$var reg 1 : sel $end
$var reg 1 ; missing $end
$var reg 16 < s_out[15:0] $end
$upscope $end
$upscope $end
$upscope $end
$upscope $end
$enddefinitions $end
#0
b0111111111111111 !
bUUUUUUUUUUUUUUUU "
b0000 #
0$
b0111111111111111 %
bUUUUUUUUUUUUUUUU &
b0000 '
0(
b0111111111111111 )
bUUUUUUUUUUUUUUUU *
0+
0,
b0111111111111111 -
bUUUUUUUUUUUUUUUU .
bUUUUUUUUUUUUUUUU /
00
01
bUUUUUUUUUUUUUUUU 2
bUUUUUUUUUUUUUUUU 3
bUUUUUUUUUUUUUUUU 4
05
06
bUUUUUUUUUUUUUUUU 7
bUUUUUUUUUUUUUUUU 8
bUUUUUUUUUUUUUUUU 9
0:
0;
bUUUUUUUUUUUUUUUU <
#10000
b0111111111111111 *
b0111111111111111 .
bUUUUUUUUUUUUUUUU /
b0111111111111111 2
bUUUUUUUUUUUUUUUU 4
bUUUUUUUUUUUUUUUU 9
#20000
b0111111111111111 /
b0111111111111111 3
b0111111111111111 7
#30000
b0111111111111111 4
b0111111111111111 8
b0111111111111111 <
#40000
b0111111111111111 "
b0111111111111111 &
b0111111111111111 9
#250000
1$
1(
1,
11
16
1;
#500000
b0001 #
0$
b0001 '
0(
1+
0,
b0011111111111111 -
01
06
0;
#510000
b0011111111111111 *
b0011111111111111 .
b0011111111111111 2
#520000
b0011111111111111 /
b0011111111111111 3
b0011111111111111 7
#530000
b0011111111111111 4
b0011111111111111 8
b0011111111111111 <
#540000
b0011111111111111 "
b0011111111111111 &
b0011111111111111 9
#750000
1$
1(
1,
11
16
1;
#1000000
b0010 #
0$
b0010 '
0(
0+
0,
b0111111111111111 -
10
01
b0000111111111111 2
06
0;
#1010000
b0111111111111111 *
b0111111111111111 .
b0000111111111111 /
b0001111111111111 2
b0000111111111111 3
b0000111111111111 7
#1020000
b0001111111111111 /
b0001111111111111 3
b0000111111111111 4
b0001111111111111 7
b0000111111111111 8
b0000111111111111 <
#1030000
b0000111111111111 "
b0000111111111111 &
b0001111111111111 4
b0001111111111111 8
b0000111111111111 9
b0001111111111111 <
#1040000
b0001111111111111 "
b0001111111111111 &
b0001111111111111 9
#1250000
1$
1(
1,
11
16
1;
#1500000
b0011 #
0$
b0011 '
0(
1+
0,
b0011111111111111 -
01
06
0;
#1510000
b0011111111111111 *
b0011111111111111 .
b0000111111111111 2
#1520000
b0000111111111111 /
b0000111111111111 3
b0000111111111111 7
#1530000
b0000111111111111 4
b0000111111111111 8
b0000111111111111 <
#1540000
b0000111111111111 "
b0000111111111111 &
b0000111111111111 9
#1750000
1$
1(
1,
11
16
1;
#2000000
b0100 #
0$
b0100 '
0(
0+
0,
b0111111111111111 -
00
01
b0011111111111111 2
15
06
b0000000011111111 7
0;
#2010000
b0111111111111111 *
b0111111111111111 .
b0011111111111111 /
b0111111111111111 2
b0011111111111111 3
b0000000011111111 4
b0000001111111111 7
b0000000011111111 8
b0000000011111111 <
#2020000
b0000000011111111 "
b0000000011111111 &
b0111111111111111 /
b0111111111111111 3
b0000001111111111 4
b0000011111111111 7
b0000001111111111 8
b0000000011111111 9
b0000001111111111 <
#2030000
b0000001111111111 "
b0000001111111111 &
b0000011111111111 4
b0000011111111111 8
b0000001111111111 9
b0000011111111111 <
#2040000
b0000011111111111 "
b0000011111111111 &
b0000011111111111 9
#2250000
1$
1(
1,
11
16
1;
#2500000
b0101 #
0$
b0101 '
0(
1+
0,
b0011111111111111 -
01
06
0;
#2510000
b0011111111111111 *
b0011111111111111 .
b0011111111111111 2
#2520000
b0011111111111111 /
b0011111111111111 3
b0000001111111111 7
#2530000
b0000001111111111 4
b0000001111111111 8
b0000001111111111 <
#2540000
b0000001111111111 "
b0000001111111111 &
b0000001111111111 9
#2750000
1$
1(
1,
11
16
1;
#3000000
b0110 #
0$
b0110 '
0(
0+
0,
b0111111111111111 -
10
01
b0000111111111111 2
06
0;
#3010000
b0111111111111111 *
b0111111111111111 .
b0000111111111111 /
b0001111111111111 2
b0000111111111111 3
b0000000011111111 7
#3020000
b0001111111111111 /
b0001111111111111 3
b0000000011111111 4
b0000000111111111 7
b0000000011111111 8
b0000000011111111 <
#3030000
b0000000011111111 "
b0000000011111111 &
b0000000111111111 4
b0000000111111111 8
b0000000011111111 9
b0000000111111111 <
#3040000
b0000000111111111 "
b0000000111111111 &
b0000000111111111 9
#3250000
1$
1(
1,
11
16
1;
#3500000
b0111 #
0$
b0111 '
0(
1+
0,
b0011111111111111 -
01
06
0;
#3510000
b0011111111111111 *
b0011111111111111 .
b0000111111111111 2
#3520000
b0000111111111111 /
b0000111111111111 3
b0000000011111111 7
#3530000
b0000000011111111 4
b0000000011111111 8
b0000000011111111 <
#3540000
b0000000011111111 "
b0000000011111111 &
b0000000011111111 9
#3750000
1$
1(
1,
11
16
1;
#4000000
b1000 #
0$
b1000 '
0(
0+
0,
b0111111111111111 -
00
01
b0011111111111111 2
05
06
b0000111111111111 7
1:
0;
b0000000000000000 <
#4010000
b0000000000000000 "
b0000000000000000 &
b0111111111111111 *
b0111111111111111 .
b0011111111111111 /
b0111111111111111 2
b0011111111111111 3
b0000111111111111 4
b0011111111111111 7
b0000111111111111 8
b0000000000000000 9
b0000000000001111 <
#4020000
b0000000000001111 "
b0000000000001111 &
b0111111111111111 /
b0111111111111111 3
b0011111111111111 4
b0111111111111111 7
b0011111111111111 8
b0000000000001111 9
b0000000000111111 <
#4030000
b0000000000111111 "
b0000000000111111 &
b0111111111111111 4
b0111111111111111 8
b0000000000111111 9
b0000000001111111 <
#4040000
b0000000001111111 "
b0000000001111111 &
b0000000001111111 9
#4250000
1$
1(
1,
11
16
1;
#4500000
b1001 #
0$
b1001 '
0(
1+
0,
b0011111111111111 -
01
06
0;
#4510000
b0011111111111111 *
b0011111111111111 .
b0011111111111111 2
#4520000
b0011111111111111 /
b0011111111111111 3
b0011111111111111 7
#4530000
b0011111111111111 4
b0011111111111111 8
b0000000000111111 <
#4540000
b0000000000111111 "
b0000000000111111 &
b0000000000111111 9
#4750000
1$
1(
1,
11
16
1;
#5000000
b1010 #
0$
b1010 '
0(
0+
0,
b0111111111111111 -
10
01
b0000111111111111 2
06
0;
#5010000
b0111111111111111 *
b0111111111111111 .
b0000111111111111 /
b0001111111111111 2
b0000111111111111 3
b0000111111111111 7
#5020000
b0001111111111111 /
b0001111111111111 3
b0000111111111111 4
b0001111111111111 7
b0000111111111111 8
b0000000000001111 <
#5030000
b0000000000001111 "
b0000000000001111 &
b0001111111111111 4
b0001111111111111 8
b0000000000001111 9
b0000000000011111 <
#5040000
b0000000000011111 "
b0000000000011111 &
b0000000000011111 9
#5250000
1$
1(
1,
11
16
1;
#5500000
b1011 #
0$
b1011 '
0(
1+
0,
b0011111111111111 -
01
06
0;
#5510000
b0011111111111111 *
b0011111111111111 .
b0000111111111111 2
#5520000
b0000111111111111 /
b0000111111111111 3
b0000111111111111 7
#5530000
b0000111111111111 4
b0000111111111111 8
b0000000000001111 <
#5540000
b0000000000001111 "
b0000000000001111 &
b0000000000001111 9
#5750000
1$
1(
1,
11
16
1;
#6000000
b1100 #
0$
b1100 '
0(
0+
0,
b0111111111111111 -
00
01
b0011111111111111 2
15
06
b0000000011111111 7
0;
#6010000
b0111111111111111 *
b0111111111111111 .
b0011111111111111 /
b0111111111111111 2
b0011111111111111 3
b0000000011111111 4
b0000001111111111 7
b0000000011111111 8
b0000000000000000 <
#6020000
b0000000000000000 "
b0000000000000000 &
b0111111111111111 /
b0111111111111111 3
b0000001111111111 4
b0000011111111111 7
b0000001111111111 8
b0000000000000000 9
b0000000000000011 <
#6030000
b0000000000000011 "
b0000000000000011 &
b0000011111111111 4
b0000011111111111 8
b0000000000000011 9
b0000000000000111 <
#6040000
b0000000000000111 "
b0000000000000111 &
b0000000000000111 9
#6250000
1$
1(
1,
11
16
1;
#6500000
b1101 #
0$
b1101 '
0(
1+
0,
b0011111111111111 -
01
06
0;
#6510000
b0011111111111111 *
b0011111111111111 .
b0011111111111111 2
#6520000
b0011111111111111 /
b0011111111111111 3
b0000001111111111 7
#6530000
b0000001111111111 4
b0000001111111111 8
b0000000000000011 <
#6540000
b0000000000000011 "
b0000000000000011 &
b0000000000000011 9
#6750000
1$
1(
1,
11
16
1;
#7000000
b1110 #
0$
b1110 '
0(
0+
0,
b0111111111111111 -
10
01
b0000111111111111 2
06
0;
#7010000
b0111111111111111 *
b0111111111111111 .
b0000111111111111 /
b0001111111111111 2
b0000111111111111 3
b0000000011111111 7
#7020000
b0001111111111111 /
b0001111111111111 3
b0000000011111111 4
b0000000111111111 7
b0000000011111111 8
b0000000000000000 <
#7030000
b0000000000000000 "
b0000000000000000 &
b0000000111111111 4
b0000000111111111 8
b0000000000000000 9
b0000000000000001 <
#7040000
b0000000000000001 "
b0000000000000001 &
b0000000000000001 9
#7250000
1$
1(
1,
11
16
1;
#7500000
b1111 #
0$
b1111 '
0(
1+
0,
b0011111111111111 -
01
06
0;
#7510000
b0011111111111111 *
b0011111111111111 .
b0000111111111111 2
#7520000
b0000111111111111 /
b0000111111111111 3
b0000000011111111 7
#7530000
b0000000011111111 4
b0000000011111111 8
b0000000000000000 <
#7540000
b0000000000000000 "
b0000000000000000 &
b0000000000000000 9
#7750000
1$
1(
1,
11
16
1;
#8000000
b1111111111111111 !
b0000 #
0$
b1111111111111111 %
b0000 '
0(
b1111111111111111 )
0+
0,
b1111111111111111 -
00
01
b0011111111111111 2
05
06
b0000111111111111 7
0:
0;
b0000000011111111 <
#8010000
b0000000011111111 "
b0000000011111111 &
b1111111111111111 *
b1111111111111111 .
b0011111111111111 /
b1111111111111111 2
b0011111111111111 3
b0000111111111111 4
b0011111111111111 7
b0000111111111111 8
b0000000011111111 9
b0000111111111111 <
#8020000
b0000111111111111 "
b0000111111111111 &
b1111111111111111 /
b1111111111111111 3
b0011111111111111 4
b1111111111111111 7
b0011111111111111 8
b0000111111111111 9
b0011111111111111 <
#8030000
b0011111111111111 "
b0011111111111111 &
b1111111111111111 4
b1111111111111111 8
b0011111111111111 9
b1111111111111111 <
#8040000
b1111111111111111 "
b1111111111111111 &
b1111111111111111 9
#8250000
1$
1(
1,
11
16
1;
#8500000
b0001 #
0$
b0001 '
0(
1+
0,
b0111111111111111 -
01
06
0;
#8510000
b0111111111111111 *
b0111111111111111 .
b0111111111111111 2
#8520000
b0111111111111111 /
b0111111111111111 3
b0111111111111111 7
#8530000
b0111111111111111 4
b0111111111111111 8
b0111111111111111 <
#8540000
b0111111111111111 "
b0111111111111111 &
b0111111111111111 9
#8750000
1$
1(
1,
b1111111111111111 -
11
16
1;
#8760000
b1111111111111111 *
b1111111111111111 .
b1111111111111111 2
#8770000
b1111111111111111 /
b1111111111111111 3
b1111111111111111 7
#8780000
b1111111111111111 4
b1111111111111111 8
b1111111111111111 <
#8790000
b1111111111111111 "
b1111111111111111 &
b1111111111111111 9
#9000000
b0010 #
0$
b0010 '
0(
0+
0,
10
01
b0011111111111111 2
06
0;
#9010000
b0011111111111111 /
b0011111111111111 3
b0011111111111111 7
#9020000
b0011111111111111 4
b0011111111111111 8
b0011111111111111 <
#9030000
b0011111111111111 "
b0011111111111111 &
b0011111111111111 9
#9250000
1$
1(
1,
11
b1111111111111111 2
16
1;
#9260000
b1111111111111111 /
b1111111111111111 3
b1111111111111111 7
#9270000
b1111111111111111 4
b1111111111111111 8
b1111111111111111 <
#9280000
b1111111111111111 "
b1111111111111111 &
b1111111111111111 9
#9500000
b0011 #
0$
b0011 '
0(
1+
0,
b0111111111111111 -
01
b0011111111111111 2
06
0;
#9510000
b0111111111111111 *
b0111111111111111 .
b0011111111111111 /
b0001111111111111 2
b0011111111111111 3
b0011111111111111 7
#9520000
b0001111111111111 /
b0001111111111111 3
b0011111111111111 4
b0001111111111111 7
b0011111111111111 8
b0011111111111111 <
#9530000
b0011111111111111 "
b0011111111111111 &
b0001111111111111 4
b0001111111111111 8
b0011111111111111 9
b0001111111111111 <
#9540000
b0001111111111111 "
b0001111111111111 &
b0001111111111111 9
#9750000
1$
1(
1,
b1111111111111111 -
11
16
1;
#9760000
b1111111111111111 *
b1111111111111111 .
b1111111111111111 2
#9770000
b1111111111111111 /
b1111111111111111 3
b1111111111111111 7
#9780000
b1111111111111111 4
b1111111111111111 8
b1111111111111111 <
#9790000
b1111111111111111 "
b1111111111111111 &
b1111111111111111 9
#10000000
b0100 #
0$
b0100 '
0(
0+
0,
00
01
15
06
b0000111111111111 7
0;
#10010000
b0000111111111111 4
b0000111111111111 8
b0000111111111111 <
#10020000
b0000111111111111 "
b0000111111111111 &
b0000111111111111 9
#10250000
1$
1(
1,
11
16
b1111111111111111 7
1;
#10260000
b1111111111111111 4
b1111111111111111 8
b1111111111111111 <
#10270000
b1111111111111111 "
b1111111111111111 &
b1111111111111111 9
#10500000
b0101 #
0$
b0101 '
0(
1+
0,
b0111111111111111 -
01
06
b0000111111111111 7
0;
#10510000
b0111111111111111 *
b0111111111111111 .
b0111111111111111 2
b0000111111111111 4
b0000111111111111 8
b0000111111111111 <
#10520000
b0000111111111111 "
b0000111111111111 &
b0111111111111111 /
b0111111111111111 3
b0000011111111111 7
b0000111111111111 9
#10530000
b0000011111111111 4
b0000011111111111 8
b0000011111111111 <
#10540000
b0000011111111111 "
b0000011111111111 &
b0000011111111111 9
#10750000
1$
1(
1,
b1111111111111111 -
11
16
1;
#10760000
b1111111111111111 *
b1111111111111111 .
b1111111111111111 2
#10770000
b1111111111111111 /
b1111111111111111 3
b1111111111111111 7
#10780000
b1111111111111111 4
b1111111111111111 8
b1111111111111111 <
#10790000
b1111111111111111 "
b1111111111111111 &
b1111111111111111 9
#11000000
b0110 #
0$
b0110 '
0(
0+
0,
10
01
b0011111111111111 2
06
b0000111111111111 7
0;
#11010000
b0011111111111111 /
b0011111111111111 3
b0000111111111111 4
b0000001111111111 7
b0000111111111111 8
b0000111111111111 <
#11020000
b0000111111111111 "
b0000111111111111 &
b0000001111111111 4
b0000001111111111 8
b0000111111111111 9
b0000001111111111 <
#11030000
b0000001111111111 "
b0000001111111111 &
b0000001111111111 9
#11250000
1$
1(
1,
11
b1111111111111111 2
16
1;
#11260000
b1111111111111111 /
b1111111111111111 3
b1111111111111111 7
#11270000
b1111111111111111 4
b1111111111111111 8
b1111111111111111 <
#11280000
b1111111111111111 "
b1111111111111111 &
b1111111111111111 9
#11500000
b0111 #
0$
b0111 '
0(
1+
0,
b0111111111111111 -
01
b0011111111111111 2
06
b0000111111111111 7
0;
#11510000
b0111111111111111 *
b0111111111111111 .
b0011111111111111 /
b0001111111111111 2
b0011111111111111 3
b0000111111111111 4
b0000001111111111 7
b0000111111111111 8
b0000111111111111 <
#11520000
b0000111111111111 "
b0000111111111111 &
b0001111111111111 /
b0001111111111111 3
b0000001111111111 4
b0000000111111111 7
b0000001111111111 8
b0000111111111111 9
b0000001111111111 <
#11530000
b0000001111111111 "
b0000001111111111 &
b0000000111111111 4
b0000000111111111 8
b0000001111111111 9
b0000000111111111 <
#11540000
b0000000111111111 "
b0000000111111111 &
b0000000111111111 9
#11750000
1$
1(
1,
b1111111111111111 -
11
16
1;
#11760000
b1111111111111111 *
b1111111111111111 .
b1111111111111111 2
#11770000
b1111111111111111 /
b1111111111111111 3
b1111111111111111 7
#11780000
b1111111111111111 4
b1111111111111111 8
b1111111111111111 <
#11790000
b1111111111111111 "
b1111111111111111 &
b1111111111111111 9
#12000000
b1000 #
0$
b1000 '
0(
0+
0,
00
01
05
06
1:
0;
b0000000011111111 <
#12010000
b0000000011111111 "
b0000000011111111 &
b0000000011111111 9
#12250000
1$
1(
1,
11
16
1;
b1111111111111111 <
#12260000
b1111111111111111 "
b1111111111111111 &
b1111111111111111 9
#12500000
b1001 #
0$
b1001 '
0(
1+
0,
b0111111111111111 -
01
06
0;
b0000000011111111 <
#12510000
b0000000011111111 "
b0000000011111111 &
b0111111111111111 *
b0111111111111111 .
b0111111111111111 2
b0000000011111111 9
#12520000
b0111111111111111 /
b0111111111111111 3
b0111111111111111 7
#12530000
b0111111111111111 4
b0111111111111111 8
b0000000001111111 <
#12540000
b0000000001111111 "
b0000000001111111 &
b0000000001111111 9
#12750000
1$
1(
1,
b1111111111111111 -
11
16
1;
#12760000
b1111111111111111 *
b1111111111111111 .
b1111111111111111 2
#12770000
b1111111111111111 /
b1111111111111111 3
b1111111111111111 7
#12780000
b1111111111111111 4
b1111111111111111 8
b1111111111111111 <
#12790000
b1111111111111111 "
b1111111111111111 &
b1111111111111111 9
#13000000
b1010 #
0$
b1010 '
0(
0+
0,
10
01
b0011111111111111 2
06
0;
b0000000011111111 <
#13010000
b0000000011111111 "
b0000000011111111 &
b0011111111111111 /
b0011111111111111 3
b0011111111111111 7
b0000000011111111 9
#13020000
b0011111111111111 4
b0011111111111111 8
b0000000000111111 <
#13030000
b0000000000111111 "
b0000000000111111 &
b0000000000111111 9
#13250000
1$
1(
1,
11
b1111111111111111 2
16
1;
#13260000
b1111111111111111 /
b1111111111111111 3
b1111111111111111 7
#13270000
b1111111111111111 4
b1111111111111111 8
b1111111111111111 <
#13280000
b1111111111111111 "
b1111111111111111 &
b1111111111111111 9
#13500000
b1011 #
0$
b1011 '
0(
1+
0,
b0111111111111111 -
01
b0011111111111111 2
06
0;
b0000000011111111 <
#13510000
b0000000011111111 "
b0000000011111111 &
b0111111111111111 *
b0111111111111111 .
b0011111111111111 /
b0001111111111111 2
b0011111111111111 3
b0011111111111111 7
b0000000011111111 9
#13520000
b0001111111111111 /
b0001111111111111 3
b0011111111111111 4
b0001111111111111 7
b0011111111111111 8
b0000000000111111 <
#13530000
b0000000000111111 "
b0000000000111111 &
b0001111111111111 4
b0001111111111111 8
b0000000000111111 9
b0000000000011111 <
#13540000
b0000000000011111 "
b0000000000011111 &
b0000000000011111 9
#13750000
1$
1(
1,
b1111111111111111 -
11
16
1;
#13760000
b1111111111111111 *
b1111111111111111 .
b1111111111111111 2
#13770000
b1111111111111111 /
b1111111111111111 3
b1111111111111111 7
#13780000
b1111111111111111 4
b1111111111111111 8
b1111111111111111 <
#13790000
b1111111111111111 "
b1111111111111111 &
b1111111111111111 9
#14000000
b1100 #
0$
b1100 '
0(
0+
0,
00
01
15
06
b0000111111111111 7
0;
b0000000011111111 <
#14010000
b0000000011111111 "
b0000000011111111 &
b0000111111111111 4
b0000111111111111 8
b0000000011111111 9
b0000000000001111 <
#14020000
b0000000000001111 "
b0000000000001111 &
b0000000000001111 9
#14250000
1$
1(
1,
11
16
b1111111111111111 7
1;
#14260000
b1111111111111111 4
b1111111111111111 8
b1111111111111111 <
#14270000
b1111111111111111 "
b1111111111111111 &
b1111111111111111 9
#14500000
b1101 #
0$
b1101 '
0(
1+
0,
b0111111111111111 -
01
06
b0000111111111111 7
0;
b0000000011111111 <
#14510000
b0000000011111111 "
b0000000011111111 &
b0111111111111111 *
b0111111111111111 .
b0111111111111111 2
b0000111111111111 4
b0000111111111111 8
b0000000011111111 9
b0000000000001111 <
#14520000
b0000000000001111 "
b0000000000001111 &
b0111111111111111 /
b0111111111111111 3
b0000011111111111 7
b0000000000001111 9
#14530000
b0000011111111111 4
b0000011111111111 8
b0000000000000111 <
#14540000
b0000000000000111 "
b0000000000000111 &
b0000000000000111 9
#14750000
1$
1(
1,
b1111111111111111 -
11
16
1;
#14760000
b1111111111111111 *
b1111111111111111 .
b1111111111111111 2
#14770000
b1111111111111111 /
b1111111111111111 3
b1111111111111111 7
#14780000
b1111111111111111 4
b1111111111111111 8
b1111111111111111 <
#14790000
b1111111111111111 "
b1111111111111111 &
b1111111111111111 9
#15000000
b1110 #
0$
b1110 '
0(
0+
0,
10
01
b0011111111111111 2
06
b0000111111111111 7
0;
b0000000011111111 <
#15010000
b0000000011111111 "
b0000000011111111 &
b0011111111111111 /
b0011111111111111 3
b0000111111111111 4
b0000001111111111 7
b0000111111111111 8
b0000000011111111 9
b0000000000001111 <
#15020000
b0000000000001111 "
b0000000000001111 &
b0000001111111111 4
b0000001111111111 8
b0000000000001111 9
b0000000000000011 <
#15030000
b0000000000000011 "
b0000000000000011 &
b0000000000000011 9
#15250000
1$
1(
1,
11
b1111111111111111 2
16
1;
#15260000
b1111111111111111 /
b1111111111111111 3
b1111111111111111 7
#15270000
b1111111111111111 4
b1111111111111111 8
b1111111111111111 <
#15280000
b1111111111111111 "
b1111111111111111 &
b1111111111111111 9
#15500000
b1111 #
0$
b1111 '
0(
1+
0,
b0111111111111111 -
01
b0011111111111111 2
06
b0000111111111111 7
0;
b0000000011111111 <
#15510000
b0000000011111111 "
b0000000011111111 &
b0111111111111111 *
b0111111111111111 .
b0011111111111111 /
b0001111111111111 2
b0011111111111111 3
b0000111111111111 4
b0000001111111111 7
b0000111111111111 8
b0000000011111111 9
b0000000000001111 <
#15520000
b0000000000001111 "
b0000000000001111 &
b0001111111111111 /
b0001111111111111 3
b0000001111111111 4
b0000000111111111 7
b0000001111111111 8
b0000000000001111 9
b0000000000000011 <
#15530000
b0000000000000011 "
b0000000000000011 &
b0000000111111111 4
b0000000111111111 8
b0000000000000011 9
b0000000000000001 <
#15540000
b0000000000000001 "
b0000000000000001 &
b0000000000000001 9
#15750000
1$
1(
1,
b1111111111111111 -
11
16
1;
#15760000
b1111111111111111 *
b1111111111111111 .
b1111111111111111 2
#15770000
b1111111111111111 /
b1111111111111111 3
b1111111111111111 7
#15780000
b1111111111111111 4
b1111111111111111 8
b1111111111111111 <
#15790000
b1111111111111111 "
b1111111111111111 &
b1111111111111111 9
